Date,"Transaction Id",Supplier,Type,Bank,"Original Value","Net Value",Cost,Total,"CB Revenue"
2018-03-12,12,"Chetan Supplier",Cession,"Icici ltd",66000,51216,4928,14784,11383.68
March-2018,,,,,66000,51216,4928,14784,11383.68
2018-04-14,15,"Chetan Supplier",Cession,"Icici ltd",640000,623360,16640,16640,12812.8
April-2018,,,,,640000,623360,16640,16640,12812.8
