{
    "menus": [
        {
            "section":[
                {
                    "title":"Dashboard",
                    "url":"",
                    "permission": "access.dashboard"
                }
            ]
        },
        {
            "section": [
                {
                    "title": "My Profile",
                    "url": "\/admin\/profile",
                    "icon": "fa fa-users",
                    "permission": "access.tickets"
                }
            ]
        },
        {
            "section": [
                {
                    "title": "Customers",
                    "icon": "fa fa-users",
                    "url":"",
                    "permission": "access.customers"
                }
            ],
            "items": [
                {
                    "title": "Add Customer",
                    "url": "\/admin\/customer\/create",
                    "icon": "fa fa-plus",
                    "permission": "access.customers.create"
                },
                {
                    "title": "List Customer",
                    "url": "\/admin\/customer",
                    "icon": "fa fa-list",
                    "permission": "access.customers"
                }
            ]
        },
        {
            "section": [
                {
                    "title": "Suppliers",
                    "icon": "fa fa-cubes",
                    "url":"",
                    "permission": "access.suppliers"
                }
            ],
            "items": [
                {
                    "title": "Add Supplier",
                    "url": "\/admin\/suppliers\/create",
                    "icon": "fa fa-plus",
                    "permission": "access.suppliers.create"
                },
                {
                    "title": "List Supplier",
                    "url": "\/admin\/suppliers",
                    "icon": "fa fa-list",
                    "permission": "access.suppliers"
                }
            ]
        },
        {
            "section": [
                {
                    "title": "Banks",
                    "icon": "fa fa-bank",
                    "url":"",
                    "permission": "access.banks"
                }
            ],
            "items": [
                {
                    "title": "Add Bank",
                    "url": "\/admin\/banks\/create",
                    "icon": "fa fa-plus",
                    "permission": "access.banks.create"
                },
                {
                    "title": "List Bank",
                    "url": "\/admin\/banks",
                    "icon": "fa fa-list",
                    "permission": "access.banks"
                }
            ]
        },
        {
            "section": [
                {
                    "title": "Transactions",
                    "icon": "fa fa-money",
                    "url":"",
                    "permission": "access.transaction"
                }
            ],
            "items": [
                {
                    "title": "Transaction Details",
                    "url": "\/admin\/transactions",
                    "icon": "fa fa-list",
                    "permission": "access.transaction"
                },
                {
                    "title": "Summary Per Customer",
                    "url": "\/admin\/customer-summary",
                    "icon": "fa fa-list",
                    "permission": "access.transaction.history.customer"
                },
                {
                    "title": "Summary Per Supplier",
                    "url": "\/admin\/supplier-summary",
                    "icon": "fa fa-list",
                    "permission": "access.transaction.history.supplier"
                }
            ]
        },
        {
            "section": [
                {
                    "title": "Recivable Summary",
                    "icon": "fa fa-money",
                    "url":"",
                    "permission": "access.receivable.summary"
                }
            ],
            "items": [
                {
                    "title": "Receivable Summary",
                    "url": "\/admin\/summary",
                    "icon": "fa fa-list",
                    "permission": "access.receivable.summary"
                }
            ]
        },
        {
            "section": [
                {
                    "title": "Invoices",
                    "icon": "fa fa-book",
                    "url":"",
                    "permission": "access.invoices"
                }
            ],
            "items": [
                {
                    "title": "Invoice list Per Supplier",
                    "url": "\/admin\/invoice",
                    "icon": "fa fa-list",
                    "permission": "access.invoices"
                }
            ]
        },
        {
            "section": [
                {
                    "title": "Users",
                    "icon": "fa fa-users",
                    "url":"",
                    "permission": "access.users"
                }
            ],
            "items": [
                {
                    "title": "Add Users",
                    "url": "\/admin\/users\/create",
                    "icon": "fa fa-plus",
                    "permission": "access.user.create"
                },
                {
                    "title": "List Users",
                    "url": "\/admin\/users",
                    "icon": "fa fa-list",
                    "permission": "access.users"
                }
            ]
        },
        
        {
            "section": [
                {
                    "title": "Admin Config",
                    "icon": "fa fa-user-circle-o",
                    "url":"",
                    "permission": "access.adminconfig"
                }
            ],
            "items": [
                {
                    "title": "Roles",
                    "url": "\/admin\/roles",
                    "icon": "fa fa-list",
                    "permission": "access.roles"
                },
                {
                    "title": "Permissions",
                    "url": "\/admin\/permissions",
                    "icon": "fa fa-list",
                    "permission": "access.permissions"
                },
                {
                    "title": "Discount rate Classes",
                    "url": "\/admin\/discount-rate",
                    "icon": "fa fa-list",
                    "permission": "access.discount.rate"
                },
                {
                    "title": "Cb Users List",
                    "url": "\/admin\/cb-users",
                    "icon": "fa fa-list",
                    "permission": "access.cb.users"
                },
                {
                    "title": "System Setting",
                    "url": "admin/system-setting",
                    "icon": "fa fa-calendar",
                    "permission": "access.systemsetting"
                }
            ]
        },
        {
            "section": [
                {
                    "title": "Reports",
                    "icon": "fa fa-file",
                    "url": "",
                    "permission": "access.reports"
                }
            ],
            "items": [
                {
                    "title": "Supplier Daily Approved Transaction",
                    "url": "\/admin\/supplierreports\/daily",
                    "icon": "fa fa-list",
                    "permission": "access.reprorts.supplierdaily"
                },
                {
                    "title": "Supplier Monthly Financial Costs",
                    "url": "\/admin\/supplierreports\/monthly",
                    "icon": "fa fa-list",
                    "permission": "access.reports.suppliermonthlyfinancialcost"
                },
                {
                    "title": "Bank Daily Cession Reports",
                    "url": "\/admin\/bankreports\/daily",
                    "icon": "fa fa-list",
                    "permission": "access.reports.banks.daily"
                },
                {
                    "title": "Bank Monthly Revenue Cession Reports",
                    "url": "\/admin\/bankreports\/monthlyrevenue",
                    "icon": "fa fa-list",
                    "permission": "access.reports.banks.monthly"
                },
                {
                    "title": " Customer Daily Reports",
                    "url": "\/admin\/customerreports",
                    "icon": "fa fa-list",
                    "permission": "access.reports.customerdailyapprovedtransaction"
                },
                {
                    "title": " Customer Monthly Reports",
                    "url": "\/admin\/customerreports\/monthlyreports",
                    "icon": "fa fa-list",
                    "permission": "access.reports.customermonthlyrevenue"
                },
                {
                    "title": "Customer Monthly Due Reports",
                    "url": "\/admin\/customerreports\/duemonthlyreports",
                    "icon": "fa fa-list",
                    "permission": "access.reports.customermonthlydue"
                }
                 
            ]
        },
        {
            "section": [
                {
                    "title": "Cb Users Reports",
                    "icon": "fa fa-file",
                    "url": "",
                    "permission": "access.cbusers.reports"
                }
            ],
            "items": [
                {
                    "title": "Deals Done By Cb Users",
                    "url": "\/admin\/cbusers\/deals-done",
                    "icon": "fa fa-list",
                    "permission": "access.cbuser.deals.closed"
                },
                {
                    "title": "ConnectBahn consolidated revenue",
                    "url": "\/admin\/cbusers\/connectbahn-revenue",
                    "icon": "fa fa-list",
                    "permission": "access.cbusers.connectbahn.consolidated.revenue.reports"
                },
                {
                    "title": "ConnectBahn revenue Reports",
                    "url": "\/admin\/customerreports\/connectbahnrevenue",
                    "icon": "fa fa-list",
                    "permission": "access.cbusers.connectbahn.consolidated.revenue.reports"
                },
                {
                    "title": "Consolidated deals of all commercial users",
                    "url": "\/admin\/supplierreports\/userdaily",
                    "icon": "fa fa-list",
                    "permission": "access.cbusers.reports.deals.consolidated"
                },
                {
                    "title": "Bank Daily Cession Reports With CB Users",
                    "url": "\/admin\/bankreports\/daily\/cbuser",
                    "icon": "fa fa-list",
                    "permission": "access.cbusers.reports.banks.intermediate"
                },
                {
                    "title": "Supplier Daily Approved Transaction With CB Users",
                    "url": "\/admin\/supplierreports\/daily\/cbuser",
                    "icon": "fa fa-list",
                    "permission": "access.cbusers.reports.supplier"
                },
                {
                    "title": "Customer Daily Reports With CB User",
                    "url": "\/admin\/customerreports\/cbuser",
                    "icon": "fa fa-list",
                    "permission": "access.cbusers.reports.customer"
                }
                
            ]
        }
    ]
}